{
  "welcomeFile": "webapp/test/testFLPService.html",
  "routes": [
    {
      "path": "/sap/opu/odata",
      "target": {
        "type": "destination",
        "name": "Paragon",
        "entryPath": "/sap/opu/odata"
      },
      "description": "Paragon"
    },
    {
      "path": "/resources",
      "target": {
        "type": "service",
        "name": "sapui5",
        "entryPath": "/resources",
        "version": "1.60.7"
      },
      "description": "SAPUI5 Resources"
    },
    {
      "path": "/test-resources",
      "target": {
        "type": "service",
        "name": "sapui5",
        "entryPath": "/test-resources",
        "version": "1.60.7"
      },
      "description": "SAPUI5 Test Resources"
    }
  ],
  "authenticationMethod": "none",
  "sendWelcomeFileRedirect": true
}